[
    {
        "model": "contenttypes.contenttype",
        "pk": 1,
        "fields": {
            "app_label": "admin",
            "model": "logentry"
        }
    },
    {
        "model": "contenttypes.contenttype",
        "pk": 2,
        "fields": {
            "app_label": "auth",
            "model": "permission"
        }
    },
    {
        "model": "contenttypes.contenttype",
        "pk": 3,
        "fields": {
            "app_label": "auth",
            "model": "group"
        }
    },
    {
        "model": "contenttypes.contenttype",
        "pk": 4,
        "fields": {
            "app_label": "auth",
            "model": "user"
        }
    },
    {
        "model": "contenttypes.contenttype",
        "pk": 5,
        "fields": {
            "app_label": "contenttypes",
            "model": "contenttype"
        }
    },
    {
        "model": "contenttypes.contenttype",
        "pk": 6,
        "fields": {
            "app_label": "sessions",
            "model": "session"
        }
    },
    {
        "model": "contenttypes.contenttype",
        "pk": 7,
        "fields": {
            "app_label": "bikeShare",
            "model": "status"
        }
    },
    {
        "model": "contenttypes.contenttype",
        "pk": 8,
        "fields": {
            "app_label": "bikeShare",
            "model": "bike"
        }
    },
    {
        "model": "contenttypes.contenttype",
        "pk": 9,
        "fields": {
            "app_label": "bikeShare",
            "model": "station"
        }
    },
    {
        "model": "contenttypes.contenttype",
        "pk": 10,
        "fields": {
            "app_label": "bikeShare",
            "model": "ride"
        }
    },
    {
        "model": "sessions.session",
        "pk": "5vepjvdbheo3i01yyewgvs8iut2tk8pe",
        "fields": {
            "session_data": "MjVlMjVhNWVhODE4ZTVmZDNhYzBiMjBlZGQ0MjEwZWExZTI0MDFmNTp7Il9hdXRoX3VzZXJfYmFja2VuZCI6ImRqYW5nby5jb250cmliLmF1dGguYmFja2VuZHMuTW9kZWxCYWNrZW5kIiwiX2F1dGhfdXNlcl9oYXNoIjoiYjlkMzMxYTA2M2UxYzYxNzU0MmZkYjA5NzMzODkwNzM2MjVjOGYxYiIsIl9hdXRoX3VzZXJfaWQiOiIxIn0=",
            "expire_date": "2017-12-31T13:40:58.839Z"
        }
    },
    {
        "model": "sessions.session",
        "pk": "iu2wfhpxtk7tgpo2uxyd8faq81rzvia9",
        "fields": {
            "session_data": "NjhkZWY4NGFmMDE4NzEyMGVjZDc3NWY4MGQ4NTlkNDhjZWMxYzMwMjp7Il9hdXRoX3VzZXJfaWQiOiIxIiwiX2F1dGhfdXNlcl9iYWNrZW5kIjoiZGphbmdvLmNvbnRyaWIuYXV0aC5iYWNrZW5kcy5Nb2RlbEJhY2tlbmQiLCJfYXV0aF91c2VyX2hhc2giOiI1ZTFkZGMyYjdiZmEyNmNhNDRjNGZmZTRjNDNjMzhhMzUzYjI1MTk0In0=",
            "expire_date": "2018-01-13T19:45:17.622Z"
        }
    },
    {
        "model": "sessions.session",
        "pk": "w4dw4u20u7blvxebljsqki69xkruxlt5",
        "fields": {
            "session_data": "NzNmZjA4OWIwZGM0ZWZiZTMxODI5MzA2Mzk2MDNjM2U3MDg4ZTczMjp7Il9hdXRoX3VzZXJfaGFzaCI6IjVlMWRkYzJiN2JmYTI2Y2E0NGM0ZmZlNGM0M2MzOGEzNTNiMjUxOTQiLCJfYXV0aF91c2VyX2lkIjoiMSIsIl9hdXRoX3VzZXJfYmFja2VuZCI6ImRqYW5nby5jb250cmliLmF1dGguYmFja2VuZHMuTW9kZWxCYWNrZW5kIn0=",
            "expire_date": "2018-01-12T20:36:46.402Z"
        }
    },
    {
        "model": "sessions.session",
        "pk": "x0qdsgoas35btft9ouy8g4hyskc8djqi",
        "fields": {
            "session_data": "MmRkMzQxNzJkNDQ4YTgzZDFhZTE2ZjZjMGRlMDUwNGQ3YjAxZGMxYjp7Il9hdXRoX3VzZXJfaWQiOiIxIiwiX2F1dGhfdXNlcl9oYXNoIjoiNWUxZGRjMmI3YmZhMjZjYTQ0YzRmZmU0YzQzYzM4YTM1M2IyNTE5NCIsIl9hdXRoX3VzZXJfYmFja2VuZCI6ImRqYW5nby5jb250cmliLmF1dGguYmFja2VuZHMuTW9kZWxCYWNrZW5kIn0=",
            "expire_date": "2018-01-13T18:29:42.638Z"
        }
    },
    {
        "model": "bikeShare.status",
        "pk": 1,
        "fields": {
            "description": "Online"
        }
    },
    {
        "model": "bikeShare.status",
        "pk": 2,
        "fields": {
            "description": "Offline"
        }
    },
    {
        "model": "bikeShare.status",
        "pk": 4,
        "fields": {
            "description": "In progress"
        }
    },
    {
        "model": "bikeShare.status",
        "pk": 5,
        "fields": {
            "description": "Broken"
        }
    },
    {
        "model": "bikeShare.status",
        "pk": 6,
        "fields": {
            "description": "Under repair"
        }
    },
    {
        "model": "bikeShare.status",
        "pk": 7,
        "fields": {
            "description": "Finished"
        }
    },
    {
        "model": "bikeShare.status",
        "pk": 8,
        "fields": {
            "description": "Borrowed"
        }
    },
    {
        "model": "bikeShare.status",
        "pk": 9,
        "fields": {
            "description": "Available"
        }
    },
    {
        "model": "bikeShare.station",
        "pk": 1,
        "fields": {
            "position": "46.780144,23.60518",
            "name": "Gorunului",
            "commissionDate": "2017-12-17T14:07:59.229Z",
            "capacity": 10,
            "status": 1
        }
    },
    {
        "model": "bikeShare.station",
        "pk": 2,
        "fields": {
            "position": "46.78155554446634,23.617112167675714",
            "name": "Fabricii de Zahar",
            "commissionDate": "2017-12-20T19:59:25Z",
            "capacity": 25,
            "status": 1
        }
    },
    {
        "model": "auth.permission",
        "pk": 1,
        "fields": {
            "name": "Can add log entry",
            "content_type": 1,
            "codename": "add_logentry"
        }
    },
    {
        "model": "auth.permission",
        "pk": 2,
        "fields": {
            "name": "Can change log entry",
            "content_type": 1,
            "codename": "change_logentry"
        }
    },
    {
        "model": "auth.permission",
        "pk": 3,
        "fields": {
            "name": "Can delete log entry",
            "content_type": 1,
            "codename": "delete_logentry"
        }
    },
    {
        "model": "auth.permission",
        "pk": 4,
        "fields": {
            "name": "Can add permission",
            "content_type": 2,
            "codename": "add_permission"
        }
    },
    {
        "model": "auth.permission",
        "pk": 5,
        "fields": {
            "name": "Can change permission",
            "content_type": 2,
            "codename": "change_permission"
        }
    },
    {
        "model": "auth.permission",
        "pk": 6,
        "fields": {
            "name": "Can delete permission",
            "content_type": 2,
            "codename": "delete_permission"
        }
    },
    {
        "model": "auth.permission",
        "pk": 7,
        "fields": {
            "name": "Can add group",
            "content_type": 3,
            "codename": "add_group"
        }
    },
    {
        "model": "auth.permission",
        "pk": 8,
        "fields": {
            "name": "Can change group",
            "content_type": 3,
            "codename": "change_group"
        }
    },
    {
        "model": "auth.permission",
        "pk": 9,
        "fields": {
            "name": "Can delete group",
            "content_type": 3,
            "codename": "delete_group"
        }
    },
    {
        "model": "auth.permission",
        "pk": 10,
        "fields": {
            "name": "Can add user",
            "content_type": 4,
            "codename": "add_user"
        }
    },
    {
        "model": "auth.permission",
        "pk": 11,
        "fields": {
            "name": "Can change user",
            "content_type": 4,
            "codename": "change_user"
        }
    },
    {
        "model": "auth.permission",
        "pk": 12,
        "fields": {
            "name": "Can delete user",
            "content_type": 4,
            "codename": "delete_user"
        }
    },
    {
        "model": "auth.permission",
        "pk": 13,
        "fields": {
            "name": "Can add content type",
            "content_type": 5,
            "codename": "add_contenttype"
        }
    },
    {
        "model": "auth.permission",
        "pk": 14,
        "fields": {
            "name": "Can change content type",
            "content_type": 5,
            "codename": "change_contenttype"
        }
    },
    {
        "model": "auth.permission",
        "pk": 15,
        "fields": {
            "name": "Can delete content type",
            "content_type": 5,
            "codename": "delete_contenttype"
        }
    },
    {
        "model": "auth.permission",
        "pk": 16,
        "fields": {
            "name": "Can add session",
            "content_type": 6,
            "codename": "add_session"
        }
    },
    {
        "model": "auth.permission",
        "pk": 17,
        "fields": {
            "name": "Can change session",
            "content_type": 6,
            "codename": "change_session"
        }
    },
    {
        "model": "auth.permission",
        "pk": 18,
        "fields": {
            "name": "Can delete session",
            "content_type": 6,
            "codename": "delete_session"
        }
    },
    {
        "model": "auth.permission",
        "pk": 19,
        "fields": {
            "name": "Can add status",
            "content_type": 7,
            "codename": "add_status"
        }
    },
    {
        "model": "auth.permission",
        "pk": 20,
        "fields": {
            "name": "Can change status",
            "content_type": 7,
            "codename": "change_status"
        }
    },
    {
        "model": "auth.permission",
        "pk": 21,
        "fields": {
            "name": "Can delete status",
            "content_type": 7,
            "codename": "delete_status"
        }
    },
    {
        "model": "auth.permission",
        "pk": 22,
        "fields": {
            "name": "Can add bike",
            "content_type": 8,
            "codename": "add_bike"
        }
    },
    {
        "model": "auth.permission",
        "pk": 23,
        "fields": {
            "name": "Can change bike",
            "content_type": 8,
            "codename": "change_bike"
        }
    },
    {
        "model": "auth.permission",
        "pk": 24,
        "fields": {
            "name": "Can delete bike",
            "content_type": 8,
            "codename": "delete_bike"
        }
    },
    {
        "model": "auth.permission",
        "pk": 25,
        "fields": {
            "name": "Can add station",
            "content_type": 9,
            "codename": "add_station"
        }
    },
    {
        "model": "auth.permission",
        "pk": 26,
        "fields": {
            "name": "Can change station",
            "content_type": 9,
            "codename": "change_station"
        }
    },
    {
        "model": "auth.permission",
        "pk": 27,
        "fields": {
            "name": "Can delete station",
            "content_type": 9,
            "codename": "delete_station"
        }
    },
    {
        "model": "auth.permission",
        "pk": 28,
        "fields": {
            "name": "Can add ride",
            "content_type": 10,
            "codename": "add_ride"
        }
    },
    {
        "model": "auth.permission",
        "pk": 29,
        "fields": {
            "name": "Can change ride",
            "content_type": 10,
            "codename": "change_ride"
        }
    },
    {
        "model": "auth.permission",
        "pk": 30,
        "fields": {
            "name": "Can delete ride",
            "content_type": 10,
            "codename": "delete_ride"
        }
    },
    {
        "model": "auth.user",
        "pk": 1,
        "fields": {
            "password": "pbkdf2_sha256$36000$9JYVysxY4xgh$bUwV6b/lKZO7WP9kKJ6awawcr+AMIdb5h7Tg+qHxOoQ=",
            "last_login": "2017-12-30T19:45:17.609Z",
            "is_superuser": true,
            "username": "laszlo",
            "first_name": "",
            "last_name": "",
            "email": "laszlo.ciople@gmail.com",
            "is_staff": true,
            "is_active": true,
            "date_joined": "2017-12-17T13:39:53.586Z",
            "groups": [],
            "user_permissions": []
        }
    },
    {
        "model": "admin.logentry",
        "pk": 1,
        "fields": {
            "action_time": "2017-12-20T19:30:06.253Z",
            "user": 1,
            "content_type": 7,
            "object_id": "2",
            "object_repr": "Offline",
            "action_flag": 1,
            "change_message": "[{\"added\": {}}]"
        }
    },
    {
        "model": "admin.logentry",
        "pk": 2,
        "fields": {
            "action_time": "2017-12-20T19:30:08.516Z",
            "user": 1,
            "content_type": 7,
            "object_id": "2",
            "object_repr": "Offline",
            "action_flag": 2,
            "change_message": "[]"
        }
    },
    {
        "model": "admin.logentry",
        "pk": 3,
        "fields": {
            "action_time": "2017-12-20T19:59:34.270Z",
            "user": 1,
            "content_type": 9,
            "object_id": "2",
            "object_repr": "Fabricii de Zahar",
            "action_flag": 1,
            "change_message": "[{\"added\": {}}]"
        }
    }
]